{
	"info": {
		"_postman_id": "67b63678-48b2-49f8-8a70-85e69008de08",
		"name": "EH",
		"schema": "https://schema.getpostman.com/json/collection/v2.1.0/collection.json"
	},
	"item": [
		{
			"name": "person",
			"item": [
				{
					"name": "create",
					"request": {
						"method": "POST",
						"header": [],
						"body": {
							"mode": "raw",
							"raw": "{\r\n  \"resourceType\": \"Person\",\r\n  \"id\": \"pp\",\r\n  \"text\": {\r\n    \"status\": \"generated\",\r\n    \"div\": \"<div xmlns=\\\"http://www.w3.org/1999/xhtml\\\">\\n      <table>\\n        <tbody>\\n          <tr>\\n            <td>Name</td>\\n            <td>Eve Marie <b>Everywoman</b></td>\\n          </tr>\\n          <tr>\\n            <td>Address</td>\\n            <td>2086 College St, Sandusky, OH, 44870</td>\\n          </tr>\\n        </tbody>\\n      </table>\\n    </div>\"\r\n  },\r\n  \"identifier\": [\r\n    {\r\n      \"use\": \"official\",\r\n      \"type\": {\r\n        \"coding\": [\r\n          {\r\n            \"system\": \"http://terminology.hl7.org/CodeSystem/v2-0203\",\r\n            \"code\": \"DL\"\r\n          }\r\n        ],\r\n        \"text\": \"Ohio driver license\"\r\n      },\r\n      \"system\": \"urn:oid:2.16.840.1.113883.4.3.39\",\r\n      \"value\": \"TL545786\",\r\n      \"period\": {\r\n        \"start\": \"2041-09-23\"\r\n      },\r\n      \"assigner\": {\r\n        \"display\": \"Ohio Bureau of Motor Vehicles\"\r\n      }\r\n    }\r\n  ],\r\n  \"name\": [\r\n    {\r\n      \"use\": \"official\",\r\n      \"family\": \"Everywoman\",\r\n      \"given\": [\r\n        \"Eve\",\r\n        \"Marie\"\r\n      ]\r\n    }\r\n  ],\r\n  \"telecom\": [\r\n    {\r\n      \"system\": \"phone\",\r\n      \"value\": \"(621)-479-9743\",\r\n      \"use\": \"home\"\r\n    }\r\n  ],\r\n  \"gender\": \"female\",\r\n  \"birthDate\": \"1974-03-07\",\r\n  \"address\": [\r\n    {\r\n      \"use\": \"home\",\r\n      \"line\": [\r\n        \"2086 College St\"\r\n      ],\r\n      \"city\": \"Sandusky\",\r\n      \"state\": \"OH\",\r\n      \"postalCode\": \"44870\",\r\n      \"country\": \"USA\"\r\n    }\r\n  ],\r\n  \"managingOrganization\": {\r\n    \"reference\": \"http://www.goodhealth.com/Organization/12\",\r\n    \"display\": \"Goodhealth Patient Portal\"\r\n  },\r\n  \"active\": true,\r\n  \"link\": [\r\n    {\r\n      \"target\": {\r\n        \"reference\": \"http://www.goodhealth.com/Patient/98574\",\r\n        \"display\": \"Eve Everywoman\"\r\n      },\r\n      \"assurance\": \"level3\"\r\n    },\r\n    {\r\n      \"target\": {\r\n        \"reference\": \"http://www.acme-medical.com/Patient/ab34d\",\r\n        \"display\": \"Eve Marie Everywoman\"\r\n      },\r\n      \"assurance\": \"level2\"\r\n    }\r\n  ]\r\n}",
							"options": {
								"raw": {
									"language": "json"
								}
							}
						},
						"url": {
							"raw": "http://manage-fhir-api.herokuapp.com/person",
							"protocol": "http",
							"host": [
								"manage-fhir-api",
								"herokuapp",
								"com"
							],
							"path": [
								"person"
							]
						}
					},
					"response": []
				},
				{
					"name": "create text",
					"request": {
						"method": "POST",
						"header": [],
						"body": {
							"mode": "raw",
							"raw": "{\r\n  \"resourceType\": \"Person\",\r\n  \"id\": \"pp\",\r\n  \"text\": {\r\n    \"status\": \"generated\",\r\n    \"div\": \"<div xmlns=\\\"http://www.w3.org/1999/xhtml\\\">\\n      <table>\\n        <tbody>\\n          <tr>\\n            <td>Name</td>\\n            <td>Eve Marie <b>Everywoman</b></td>\\n          </tr>\\n          <tr>\\n            <td>Address</td>\\n            <td>2086 College St, Sandusky, OH, 44870</td>\\n          </tr>\\n        </tbody>\\n      </table>\\n    </div>\"\r\n  },\r\n  \"identifier\": [\r\n    {\r\n      \"use\": \"official\",\r\n      \"type\": {\r\n        \"coding\": [\r\n          {\r\n            \"system\": \"http://terminology.hl7.org/CodeSystem/v2-0203\",\r\n            \"code\": \"DL\"\r\n          }\r\n        ],\r\n        \"text\": \"Ohio driver license\"\r\n      },\r\n      \"system\": \"urn:oid:2.16.840.1.113883.4.3.39\",\r\n      \"value\": \"TL545786\",\r\n      \"period\": {\r\n        \"start\": \"2041-09-23\"\r\n      },\r\n      \"assigner\": {\r\n        \"display\": \"Ohio Bureau of Motor Vehicles\"\r\n      }\r\n    }\r\n  ],\r\n  \"name\": [\r\n    {\r\n      \"use\": \"official\",\r\n      \"family\": \"Everywoman\",\r\n      \"given\": [\r\n        \"Eve\",\r\n        \"Marie\"\r\n      ]\r\n    }\r\n  ],\r\n  \"telecom\": [\r\n    {\r\n      \"system\": \"phone\",\r\n      \"value\": \"(621)-479-9743\",\r\n      \"use\": \"home\"\r\n    }\r\n  ],\r\n  \"gender\": \"female\",\r\n  \"birthDate\": \"1974-03-07\",\r\n  \"address\": [\r\n    {\r\n      \"use\": \"home\",\r\n      \"line\": [\r\n        \"2086 College St\"\r\n      ],\r\n      \"city\": \"Sandusky\",\r\n      \"state\": \"OH\",\r\n      \"postalCode\": \"44870\",\r\n      \"country\": \"USA\"\r\n    }\r\n  ],\r\n  \"managingOrganization\": {\r\n    \"reference\": \"http://www.goodhealth.com/Organization/12\",\r\n    \"display\": \"Goodhealth Patient Portal\"\r\n  },\r\n  \"active\": true,\r\n  \"link\": [\r\n    {\r\n      \"target\": {\r\n        \"reference\": \"http://www.goodhealth.com/Patient/98574\",\r\n        \"display\": \"Eve Everywoman\"\r\n      },\r\n      \"assurance\": \"level3\"\r\n    },\r\n    {\r\n      \"target\": {\r\n        \"reference\": \"http://www.acme-medical.com/Patient/ab34d\",\r\n        \"display\": \"Eve Marie Everywoman\"\r\n      },\r\n      \"assurance\": \"level2\"\r\n    }\r\n  ]\r\n}",
							"options": {
								"raw": {
									"language": "text"
								}
							}
						},
						"url": {
							"raw": "http://manage-fhir-api.herokuapp.com/person/text",
							"protocol": "http",
							"host": [
								"manage-fhir-api",
								"herokuapp",
								"com"
							],
							"path": [
								"person",
								"text"
							]
						}
					},
					"response": []
				},
				{
					"name": "update",
					"request": {
						"method": "PUT",
						"header": [],
						"body": {
							"mode": "raw",
							"raw": "{\r\n  \"resourceType\": \"Person\",\r\n  \"id\": \"4028803c808edefb01808edf1c0f0000\",\r\n  \"text\": {\r\n    \"status\": \"generated\",\r\n    \"div\": \"<div xmlns=\\\"http://www.w3.org/1999/xhtml\\\">\\n      <table>\\n        <tbody>\\n          <tr>\\n            <td>Name</td>\\n            <td>Peter James <b>Chalmers</b> (&quot;Jim&quot;)</td>\\n          </tr>\\n          <tr>\\n            <td>Address</td>\\n            <td>534 Erewhon, Pleasantville, Vic, 3999</td>\\n          </tr>\\n          <tr>\\n            <td>Contacts</td>\\n            <td>Home: unknown. Work: (03) 5555 6473</td>\\n          </tr>\\n          <tr>\\n            <td>Id</td>\\n            <td>MRN: 12345 (Acme Healthcare)</td>\\n          </tr>\\n        </tbody>\\n      </table>\\n    </div>\"\r\n  },\r\n  \"identifier\": [\r\n    {\r\n      \"use\": \"temp\",\r\n      \"type\": {\r\n        \"coding\": [\r\n          {\r\n            \"system\": \"http://terminology.hl7.org/CodeSystem/v2-0203\",\r\n            \"code\": \"MR\"\r\n          }\r\n        ]\r\n      },\r\n      \"system\": \"urn:oid:1.2.36.146.595.217.0.1\",\r\n      \"value\": \"12345\",\r\n      \"period\": {\r\n        \"start\": \"2001-05-06\"\r\n      },\r\n      \"assigner\": {\r\n        \"display\": \"Acme Healthcare\"\r\n      }\r\n    }\r\n  ],\r\n  \"name\": [\r\n    {\r\n      \"use\": \"official\",\r\n      \"family\": \"Chalmers\",\r\n      \"given\": [\r\n        \"Peter\",\r\n        \"James\"\r\n      ]\r\n    },\r\n    {\r\n      \"use\": \"usual\",\r\n      \"given\": [\r\n        \"Jim\"\r\n      ]\r\n    }\r\n  ],\r\n  \"telecom\": [\r\n    {\r\n      \"use\": \"home\"\r\n    },\r\n    {\r\n      \"system\": \"phone\",\r\n      \"value\": \"(03) 5555 6473\",\r\n      \"use\": \"work\"\r\n    },\r\n    {\r\n      \"system\": \"email\",\r\n      \"value\": \"Jim@example.org\",\r\n      \"use\": \"home\"\r\n    }\r\n  ],\r\n  \"gender\": \"male\",\r\n  \"birthDate\": \"1974-12-25\",\r\n  \"address\": [\r\n    {\r\n      \"use\": \"home\",\r\n      \"line\": [\r\n        \"534 Erewhon St\"\r\n      ],\r\n      \"city\": \"PleasantVille\",\r\n      \"state\": \"Vic\",\r\n      \"postalCode\": \"3999\"\r\n    }\r\n  ],\r\n  \"active\": true,\r\n  \"link\": [\r\n    {\r\n      \"target\": {\r\n        \"reference\": \"RelatedPerson/peter\",\r\n        \"display\": \"Peter Chalmers 1\"\r\n      }\r\n    },\r\n    {\r\n      \"target\": {\r\n        \"reference\": \"Patient/example\",\r\n        \"display\": \"Peter Chalmers\"\r\n      }\r\n    }\r\n  ]\r\n}",
							"options": {
								"raw": {
									"language": "json"
								}
							}
						},
						"url": {
							"raw": "http://manage-fhir-api.herokuapp.com/person/4028803c808edefb01808edf1c0f0000",
							"protocol": "http",
							"host": [
								"manage-fhir-api",
								"herokuapp",
								"com"
							],
							"path": [
								"person",
								"4028803c808edefb01808edf1c0f0000"
							]
						}
					},
					"response": []
				},
				{
					"name": "all persons",
					"request": {
						"method": "GET",
						"header": [],
						"url": {
							"raw": "http://manage-fhir-api.herokuapp.com/person",
							"protocol": "http",
							"host": [
								"manage-fhir-api",
								"herokuapp",
								"com"
							],
							"path": [
								"person"
							]
						}
					},
					"response": []
				},
				{
					"name": "by id",
					"request": {
						"method": "GET",
						"header": [],
						"url": {
							"raw": "http://manage-fhir-api.herokuapp.com/person/4028803c808edc9701808edd16880003",
							"protocol": "http",
							"host": [
								"manage-fhir-api",
								"herokuapp",
								"com"
							],
							"path": [
								"person",
								"4028803c808edc9701808edd16880003"
							]
						}
					},
					"response": []
				},
				{
					"name": "delete",
					"request": {
						"method": "DELETE",
						"header": [],
						"url": {
							"raw": "http://manage-fhir-api.herokuapp.com/person/4028803c808fb69a01808fb6f5400003",
							"protocol": "http",
							"host": [
								"manage-fhir-api",
								"herokuapp",
								"com"
							],
							"path": [
								"person",
								"4028803c808fb69a01808fb6f5400003"
							]
						}
					},
					"response": []
				}
			]
		},
		{
			"name": "organization",
			"item": [
				{
					"name": "create",
					"request": {
						"method": "POST",
						"header": [],
						"body": {
							"mode": "raw",
							"raw": "{\r\n  \"resourceType\": \"Organization\",\r\n  \"id\": \"f001\",\r\n  \"text\": {\r\n    \"status\": \"generated\",\r\n    \"div\": \"<div xmlns=\\\"http://www.w3.org/1999/xhtml\\\"><p><b>Generated Narrative with Details</b></p><p><b>id</b>: f001</p><p><b>identifier</b>: 91654 (OFFICIAL), 17-0112278 (USUAL)</p><p><b>type</b>: University Medical Hospital <span>(Details : {urn:oid:2.16.840.1.113883.2.4.15.1060 code 'V6' = 'V6', given as 'University Medical Hospital'}; {http://terminology.hl7.org/CodeSystem/organization-type code 'prov' = 'Healthcare Provider', given as 'Healthcare Provider'})</span></p><p><b>name</b>: Burgers University Medical Center</p><p><b>telecom</b>: ph: 022-655 2300(WORK)</p><p><b>address</b>: </p><ul><li>Galapagosweg 91 Den Burg 9105 PZ NLD (WORK)</li><li>PO Box 2311 Den Burg 9100 AA NLD (WORK)</li></ul><blockquote><p><b>contact</b></p><p><b>purpose</b>: Press <span>(Details : {http://terminology.hl7.org/CodeSystem/contactentity-type code 'PRESS' = 'Press)</span></p><p><b>telecom</b>: ph: 022-655 2334</p></blockquote><blockquote><p><b>contact</b></p><p><b>purpose</b>: Patient <span>(Details : {http://terminology.hl7.org/CodeSystem/contactentity-type code 'PATINF' = 'Patient)</span></p><p><b>telecom</b>: ph: 022-655 2335</p></blockquote></div>\"\r\n  },\r\n  \"identifier\": [\r\n    {\r\n      \"use\": \"official\",\r\n      \"system\": \"urn:oid:2.16.528.1\",\r\n      \"value\": \"91654\"\r\n    },\r\n    {\r\n      \"use\": \"usual\",\r\n      \"system\": \"urn:oid:2.16.840.1.113883.2.4.6.1\",\r\n      \"value\": \"17-0112278\"\r\n    }\r\n  ],\r\n  \"type\": [\r\n    {\r\n      \"coding\": [\r\n        {\r\n          \"system\": \"urn:oid:2.16.840.1.113883.2.4.15.1060\",\r\n          \"code\": \"V6\",\r\n          \"display\": \"University Medical Hospital\"\r\n        },\r\n        {\r\n          \"system\": \"http://terminology.hl7.org/CodeSystem/organization-type\",\r\n          \"code\": \"prov\",\r\n          \"display\": \"Healthcare Provider\"\r\n        }\r\n      ]\r\n    }\r\n  ],\r\n  \"name\": \"Burgers University Medical Center\",\r\n  \"telecom\": [\r\n    {\r\n      \"system\": \"phone\",\r\n      \"value\": \"022-655 2300\",\r\n      \"use\": \"work\"\r\n    }\r\n  ],\r\n  \"address\": [\r\n    {\r\n      \"use\": \"work\",\r\n      \"line\": [\r\n        \"Galapagosweg 91\"\r\n      ],\r\n      \"city\": \"Den Burg\",\r\n      \"postalCode\": \"9105 PZ\",\r\n      \"country\": \"NLD\"\r\n    },\r\n    {\r\n      \"use\": \"work\",\r\n      \"line\": [\r\n        \"PO Box 2311\"\r\n      ],\r\n      \"city\": \"Den Burg\",\r\n      \"postalCode\": \"9100 AA\",\r\n      \"country\": \"NLD\"\r\n    }\r\n  ],\r\n  \"contact\": [\r\n    {\r\n      \"purpose\": {\r\n        \"coding\": [\r\n          {\r\n            \"system\": \"http://terminology.hl7.org/CodeSystem/contactentity-type\",\r\n            \"code\": \"PRESS\"\r\n          }\r\n        ]\r\n      },\r\n      \"telecom\": [\r\n        {\r\n          \"system\": \"phone\",\r\n          \"value\": \"022-655 2334\"\r\n        }\r\n      ]\r\n    },\r\n    {\r\n      \"purpose\": {\r\n        \"coding\": [\r\n          {\r\n            \"system\": \"http://terminology.hl7.org/CodeSystem/contactentity-type\",\r\n            \"code\": \"PATINF\"\r\n          }\r\n        ]\r\n      },\r\n      \"telecom\": [\r\n        {\r\n          \"system\": \"phone\",\r\n          \"value\": \"022-655 2335\"\r\n        }\r\n      ]\r\n    }\r\n  ]\r\n}",
							"options": {
								"raw": {
									"language": "json"
								}
							}
						},
						"url": {
							"raw": "http://manage-fhir-api.herokuapp.com/organization",
							"protocol": "http",
							"host": [
								"manage-fhir-api",
								"herokuapp",
								"com"
							],
							"path": [
								"organization"
							]
						}
					},
					"response": []
				},
				{
					"name": "create text",
					"request": {
						"method": "POST",
						"header": [],
						"body": {
							"mode": "raw",
							"raw": "{\r\n  \"resourceType\": \"Organization\",\r\n  \"id\": \"f001\",\r\n  \"text\": {\r\n    \"status\": \"generated\",\r\n    \"div\": \"<div xmlns=\\\"http://www.w3.org/1999/xhtml\\\"><p><b>Generated Narrative with Details</b></p><p><b>id</b>: f001</p><p><b>identifier</b>: 91654 (OFFICIAL), 17-0112278 (USUAL)</p><p><b>type</b>: University Medical Hospital <span>(Details : {urn:oid:2.16.840.1.113883.2.4.15.1060 code 'V6' = 'V6', given as 'University Medical Hospital'}; {http://terminology.hl7.org/CodeSystem/organization-type code 'prov' = 'Healthcare Provider', given as 'Healthcare Provider'})</span></p><p><b>name</b>: Burgers University Medical Center</p><p><b>telecom</b>: ph: 022-655 2300(WORK)</p><p><b>address</b>: </p><ul><li>Galapagosweg 91 Den Burg 9105 PZ NLD (WORK)</li><li>PO Box 2311 Den Burg 9100 AA NLD (WORK)</li></ul><blockquote><p><b>contact</b></p><p><b>purpose</b>: Press <span>(Details : {http://terminology.hl7.org/CodeSystem/contactentity-type code 'PRESS' = 'Press)</span></p><p><b>telecom</b>: ph: 022-655 2334</p></blockquote><blockquote><p><b>contact</b></p><p><b>purpose</b>: Patient <span>(Details : {http://terminology.hl7.org/CodeSystem/contactentity-type code 'PATINF' = 'Patient)</span></p><p><b>telecom</b>: ph: 022-655 2335</p></blockquote></div>\"\r\n  },\r\n  \"identifier\": [\r\n    {\r\n      \"use\": \"official\",\r\n      \"system\": \"urn:oid:2.16.528.1\",\r\n      \"value\": \"91654\"\r\n    },\r\n    {\r\n      \"use\": \"usual\",\r\n      \"system\": \"urn:oid:2.16.840.1.113883.2.4.6.1\",\r\n      \"value\": \"17-0112278\"\r\n    }\r\n  ],\r\n  \"type\": [\r\n    {\r\n      \"coding\": [\r\n        {\r\n          \"system\": \"urn:oid:2.16.840.1.113883.2.4.15.1060\",\r\n          \"code\": \"V6\",\r\n          \"display\": \"University Medical Hospital\"\r\n        },\r\n        {\r\n          \"system\": \"http://terminology.hl7.org/CodeSystem/organization-type\",\r\n          \"code\": \"prov\",\r\n          \"display\": \"Healthcare Provider\"\r\n        }\r\n      ]\r\n    }\r\n  ],\r\n  \"name\": \"Burgers University Medical Center\",\r\n  \"telecom\": [\r\n    {\r\n      \"system\": \"phone\",\r\n      \"value\": \"022-655 2300\",\r\n      \"use\": \"work\"\r\n    }\r\n  ],\r\n  \"address\": [\r\n    {\r\n      \"use\": \"work\",\r\n      \"line\": [\r\n        \"Galapagosweg 91\"\r\n      ],\r\n      \"city\": \"Den Burg\",\r\n      \"postalCode\": \"9105 PZ\",\r\n      \"country\": \"NLD\"\r\n    },\r\n    {\r\n      \"use\": \"work\",\r\n      \"line\": [\r\n        \"PO Box 2311\"\r\n      ],\r\n      \"city\": \"Den Burg\",\r\n      \"postalCode\": \"9100 AA\",\r\n      \"country\": \"NLD\"\r\n    }\r\n  ],\r\n  \"contact\": [\r\n    {\r\n      \"purpose\": {\r\n        \"coding\": [\r\n          {\r\n            \"system\": \"http://terminology.hl7.org/CodeSystem/contactentity-type\",\r\n            \"code\": \"PRESS\"\r\n          }\r\n        ]\r\n      },\r\n      \"telecom\": [\r\n        {\r\n          \"system\": \"phone\",\r\n          \"value\": \"022-655 2334\"\r\n        }\r\n      ]\r\n    },\r\n    {\r\n      \"purpose\": {\r\n        \"coding\": [\r\n          {\r\n            \"system\": \"http://terminology.hl7.org/CodeSystem/contactentity-type\",\r\n            \"code\": \"PATINF\"\r\n          }\r\n        ]\r\n      },\r\n      \"telecom\": [\r\n        {\r\n          \"system\": \"phone\",\r\n          \"value\": \"022-655 2335\"\r\n        }\r\n      ]\r\n    }\r\n  ]\r\n}",
							"options": {
								"raw": {
									"language": "text"
								}
							}
						},
						"url": {
							"raw": "http://manage-fhir-api.herokuapp.com/organization/text",
							"protocol": "http",
							"host": [
								"manage-fhir-api",
								"herokuapp",
								"com"
							],
							"path": [
								"organization",
								"text"
							]
						}
					},
					"response": []
				},
				{
					"name": "update",
					"request": {
						"method": "PUT",
						"header": [],
						"body": {
							"mode": "raw",
							"raw": "{\r\n  \"resourceType\": \"Organization\",\r\n  \"id\": \"4028803c808f407201808f411cde0003\",\r\n  \"active\":true,\r\n  \"text\": {\r\n    \"status\": \"generated\",\r\n    \"div\": \"<div xmlns=\\\"http://www.w3.org/1999/xhtml\\\"><p><b>Generated Narrative with Details</b></p><p><b>id</b>: f001</p><p><b>identifier</b>: 91654 (OFFICIAL), 17-0112278 (USUAL)</p><p><b>type</b>: University Medical Hospital <span>(Details : {urn:oid:2.16.840.1.113883.2.4.15.1060 code 'V6' = 'V6', given as 'University Medical Hospital'}; {http://terminology.hl7.org/CodeSystem/organization-type code 'prov' = 'Healthcare Provider', given as 'Healthcare Provider'})</span></p><p><b>name</b>: Burgers University Medical Center</p><p><b>telecom</b>: ph: 022-655 2300(WORK)</p><p><b>address</b>: </p><ul><li>Galapagosweg 91 Den Burg 9105 PZ NLD (WORK)</li><li>PO Box 2311 Den Burg 9100 AA NLD (WORK)</li></ul><blockquote><p><b>contact</b></p><p><b>purpose</b>: Press <span>(Details : {http://terminology.hl7.org/CodeSystem/contactentity-type code 'PRESS' = 'Press)</span></p><p><b>telecom</b>: ph: 022-655 2334</p></blockquote><blockquote><p><b>contact</b></p><p><b>purpose</b>: Patient <span>(Details : {http://terminology.hl7.org/CodeSystem/contactentity-type code 'PATINF' = 'Patient)</span></p><p><b>telecom</b>: ph: 022-655 2335</p></blockquote></div>\"\r\n  },\r\n  \"identifier\": [\r\n    {\r\n      \"use\": \"official\",\r\n      \"system\": \"urn:oid:2.16.528.1\",\r\n      \"value\": \"91654\"\r\n    },\r\n    {\r\n      \"use\": \"usual\",\r\n      \"system\": \"urn:oid:2.16.840.1.113883.2.4.6.1\",\r\n      \"value\": \"17-0112278\"\r\n    }\r\n  ],\r\n  \"type\": [\r\n    {\r\n      \"coding\": [\r\n        {\r\n          \"system\": \"urn:oid:2.16.840.1.113883.2.4.15.1060\",\r\n          \"code\": \"V6\",\r\n          \"display\": \"University Medical Hospital\"\r\n        },\r\n        {\r\n          \"system\": \"http://terminology.hl7.org/CodeSystem/organization-type\",\r\n          \"code\": \"prov\",\r\n          \"display\": \"Healthcare Provider\"\r\n        }\r\n      ]\r\n    }\r\n  ],\r\n  \"name\": \"Burgers University Medical Center\",\r\n  \"telecom\": [\r\n    {\r\n      \"system\": \"phone\",\r\n      \"value\": \"022-655 2300\",\r\n      \"use\": \"work\"\r\n    }\r\n  ],\r\n  \"address\": [\r\n    {\r\n      \"use\": \"work\",\r\n      \"line\": [\r\n        \"Galapagosweg 91\"\r\n      ],\r\n      \"city\": \"Den Burg\",\r\n      \"postalCode\": \"9105 PZ\",\r\n      \"country\": \"NLD\"\r\n    },\r\n    {\r\n      \"use\": \"work\",\r\n      \"line\": [\r\n        \"PO Box 2311\"\r\n      ],\r\n      \"city\": \"Den Burg\",\r\n      \"postalCode\": \"9100 AA\",\r\n      \"country\": \"NLD\"\r\n    }\r\n  ],\r\n  \"contact\": [\r\n    {\r\n      \"purpose\": {\r\n        \"coding\": [\r\n          {\r\n            \"system\": \"http://terminology.hl7.org/CodeSystem/contactentity-type\",\r\n            \"code\": \"PRESS\"\r\n          }\r\n        ]\r\n      },\r\n      \"telecom\": [\r\n        {\r\n          \"system\": \"phone\",\r\n          \"value\": \"022-655 2334\"\r\n        }\r\n      ]\r\n    },\r\n    {\r\n      \"purpose\": {\r\n        \"coding\": [\r\n          {\r\n            \"system\": \"http://terminology.hl7.org/CodeSystem/contactentity-type\",\r\n            \"code\": \"PATINF\"\r\n          }\r\n        ]\r\n      },\r\n      \"telecom\": [\r\n        {\r\n          \"system\": \"phone\",\r\n          \"value\": \"022-655 2335\"\r\n        }\r\n      ]\r\n    }\r\n  ]\r\n}",
							"options": {
								"raw": {
									"language": "json"
								}
							}
						},
						"url": {
							"raw": "http://manage-fhir-api.herokuapp.com/organization/4028803c808f407201808f411cde0003",
							"protocol": "http",
							"host": [
								"manage-fhir-api",
								"herokuapp",
								"com"
							],
							"path": [
								"organization",
								"4028803c808f407201808f411cde0003"
							]
						}
					},
					"response": []
				},
				{
					"name": "all organizations",
					"request": {
						"method": "GET",
						"header": [],
						"url": {
							"raw": "http://manage-fhir-api.herokuapp.com/organization",
							"protocol": "http",
							"host": [
								"manage-fhir-api",
								"herokuapp",
								"com"
							],
							"path": [
								"organization"
							]
						}
					},
					"response": []
				},
				{
					"name": "by id",
					"request": {
						"method": "GET",
						"header": [],
						"url": {
							"raw": "http://manage-fhir-api.herokuapp.com/organization/4028803c808f211b01808f213a770000",
							"protocol": "http",
							"host": [
								"manage-fhir-api",
								"herokuapp",
								"com"
							],
							"path": [
								"organization",
								"4028803c808f211b01808f213a770000"
							]
						}
					},
					"response": []
				},
				{
					"name": "delete",
					"request": {
						"method": "DELETE",
						"header": [],
						"url": {
							"raw": "http://manage-fhir-api.herokuapp.com/organization/4028803c808fc67301808fc6b13e0003",
							"protocol": "http",
							"host": [
								"manage-fhir-api",
								"herokuapp",
								"com"
							],
							"path": [
								"organization",
								"4028803c808fc67301808fc6b13e0003"
							]
						}
					},
					"response": []
				}
			]
		}
	]
}